Getting Started with superNetballR • superNetballR
…
Tidying Match and Player Statistics

The full match data can be tidied into match and player statistics,
grouped by period.

Tidying match statistics using the tidyMatch
function:

tidied_match <- tidyMatch(round5_game3)
tidied_match
#> # A tibble: 256 × 9
#>    period squadId squadName      squadNickname squadCode stat  value round  game
#>     <int>   <int> <chr>          <chr>         <chr>     <chr> <int> <int> <int>
#>  1      1    8117 Sunshine Coas… Lightning     SCL       rebo…     0     5     3
#>  2      1    8117 Sunshine Coas… Lightning     SCL       goal…     9     5     3
#>  3      1    8117 Sunshine Coas… Lightning     SCL       goal…     3     5     3
#>  4      1    8117 Sunshine Coas… Lightning     SCL       pena…    12     5     3
#>  5      1    8117 Sunshine Coas… Lightning     SCL       time…    49     5     3
#>  6      1    8117 Sunshine Coas… Lightning     SCL       gain      5     5     3
#>  7      1    8117 Sunshine Coas… Lightning     SCL       offe…     0     5     3
#>  8      1    8117 Sunshine Coas… Lightning     SCL       poss…    39     5     3
#>  9      1    8117 Sunshine Coas… Lightning     SCL       goal…     3     5     3
#> 10      1    8117 Sunshine Coas… Lightning     SCL       bloc…     0     5     3
#> # ℹ 246 more rows

Tidying player statistics using the tidyPlayers
function:

tidied_players <- tidyPlayers(round5_game3)
tidied_players
#> # A tibble: 2,560 × 11
#>    playerId period squadId shortDisplayName firstname surname squadName    stat 
#>       <int>  <int>   <int> <chr>            <chr>     <chr>   <chr>        <chr>
#>  1    80010      1    8117 Mentor, G        Geva      Mentor  Sunshine Co… rebo…
#>  2    80010      1    8117 Mentor, G        Geva      Mentor  Sunshine Co… pena…
#>  3    80010      1    8117 Mentor, G        Geva      Mentor  Sunshine Co… gain 
#>  4    80010      1    8117 Mentor, G        Geva      Mentor  Sunshine Co… offe…
#>  5    80010      1    8117 Mentor, G        Geva      Mentor  Sunshine Co… poss…
#>  6    80010      1    8117 Mentor, G        Geva      Mentor  Sunshine Co… goal…
#>  7    80010      1    8117 Mentor, G        Geva      Mentor  Sunshine Co… bloc…
#>  8    80010      1    8117 Mentor, G        Geva      Mentor  Sunshine Co… pass…
#>  9    80010      1    8117 Mentor, G        Geva      Mentor  Sunshine Co… goal…
#> 10    80010      1    8117 Mentor, G        Geva      Mentor  Sunshine Co… toss…
#> # ℹ 2,550 more rows
#> # ℹ 3 more variables: value <chr>, round <int>, game <int>

Season Data and Ladders

Provided with the superNetballR package is the full 2017
season match and player statistics in tidied format. These have been
obtained using the previously described methods, tidied, and then
combined by rows to produce a single data frame:

data(season_2017)
season_2017
#> # A tibble: 15,360 × 9
#>    period squadId squadName      squadNickname squadCode stat  value round  game
#>     <int>   <int> <chr>          <chr>         <chr>     <chr> <int> <int> <int>
#>  1      1     806 NSW Swifts     Swifts        NSW       rebo…     0     1     1
#>  2      2     806 NSW Swifts     Swifts        NSW       rebo…     1     1     1
#>  3      3     806 NSW Swifts     Swifts        NSW       rebo…     1     1     1
#>  4      4     806 NSW Swifts     Swifts        NSW       rebo…     0     1     1
#>  5      1    8118 GIANTS Netball GIANTS        GNB       rebo…     1     1     1
#>  6      2    8118 GIANTS Netball GIANTS        GNB       rebo…     2     1     1
#>  7      3    8118 GIANTS Netball GIANTS        GNB       rebo…     2     1     1
#>  8      4    8118 GIANTS Netball GIANTS        GNB       rebo…     1     1     1
#>  9      1     806 NSW Swifts     Swifts        NSW       goal…     6     1     1
#> 10      2     806 NSW Swifts     Swifts        NSW       goal…    13     1     1
#> # ℹ 15,350 more rows
…
